- username: hawariyawp | role: SuperAdministrator | Operation: Upload File | DateTime: Tue May 26 2020 10:12:12 GMT+0300 (East Africa Time) 

- username: hawariyawp | role: SuperAdministrator | Operation: Update Uploaded File | DateTime: Tue May 26 2020 10:12:42 GMT+0300 (East Africa Time) 

- username: hawariyawp | role: SuperAdministrator | Operation: Delete Uploaded File | DateTime: Tue May 26 2020 10:13:14 GMT+0300 (East Africa Time) 

- username: hawariyawp | role: SuperAdministrator | Operation: Update User | DateTime: Tue May 26 2020 10:30:23 GMT+0300 (East Africa Time) 

- username: hawariyawp | role: SuperAdministrator | Operation: Update Destination | DateTime: Tue May 26 2020 10:44:05 GMT+0300 (East Africa Time) 

- username: hawariyawp | role: SuperAdministrator | Operation: Add License Assignment | DateTime: Thu May 28 2020 14:30:34 GMT+0300 (East Africa Time) 

- username: hawariyawp | role: SuperAdministrator | Operation: Add License Assignment | DateTime: Thu May 28 2020 14:33:27 GMT+0300 (East Africa Time) 

- username: hawariyawp | role: SuperAdministrator | Operation: Add License Assignment | DateTime: Thu May 28 2020 14:35:01 GMT+0300 (East Africa Time) 

- username: hawariyawp | role: SuperAdministrator | Operation: Add License Assignment | DateTime: Thu May 28 2020 14:35:30 GMT+0300 (East Africa Time) 

- username: hawariyawp | role: SuperAdministrator | Operation: Add License Assignment | DateTime: Thu May 28 2020 14:36:22 GMT+0300 (East Africa Time) 

- username: hawariyawp | role: SuperAdministrator | Operation: Add License Assignment | DateTime: Thu May 28 2020 14:38:34 GMT+0300 (East Africa Time) 

- username: hawariyawp | role: SuperAdministrator | Operation: Add License Assignment | DateTime: Thu May 28 2020 14:39:06 GMT+0300 (East Africa Time) 

- username: hawariyawp | role: SuperAdministrator | Operation: Add License Assignment | DateTime: Thu May 28 2020 14:42:37 GMT+0300 (East Africa Time) 

- username: hawariyawp | role: SuperAdministrator | Operation: Add License Assignment | DateTime: Thu May 28 2020 14:51:22 GMT+0300 (East Africa Time) 

- username: hawariyawp | role: SuperAdministrator | Operation: Add License Assignment | DateTime: Thu May 28 2020 18:08:47 GMT+0300 (East Africa Time) 

